…
``` r
# Group the count of each type of rider by month and member_casual
cleaned_df %>%
    group_by(month, member_casual) %>%
    count()
```

    ## # A tibble: 24 × 3
    ## # Groups:   month, member_casual [24]
    ##    month member_casual      n
    ##    <chr> <chr>          <int>
    ##  1 01    casual         33453
    ##  2 01    member        130119
    ##  3 02    casual         36696
    ##  4 02    member        128268
    ##  5 03    casual         52900
    ##  6 03    member        169849
    ##  7 04    casual        125091
    ##  8 04    member        237650
    ##  9 05    casual        243105
    ## 10 05    member        305001
    ## # ℹ 14 more rows
…
